Ordinal scales
…
# Create the vectors for the treatments
trAs <- c(5,4,2,5,5,4,4,2,5,2,2,3,4,3,2,2,6,2,2,4,2,4,2,4,5,3,4,2,2,3)
trBs <- c(5,3,2,4,4,5,4,5,4,4,6,4,5,5,5,2,6,2,3,5,2,6,4,3,2,5,3,5,4,5)
trCs <- c(2,3,1,4,1,1,4,1,1,3,2,1,4,1,1,2,5,2,1,3,1,4,2,2,2,4,2,3,2,2)
trDs <- c(5,5,4,5,5,6,6,4,6,4,3,5,5,6,4,6,5,6,5,4,5,5,5,3,5,6,5,5,5,6)

# Create the tibble
dat_ordinal <- tibble::tibble(
  treatment = rep(c("A", "B", "C", "D"), each = 30),
  score = c(trAs, trBs, trCs, trDs)
)

dat_ordinal

# A tibble: 120 × 2
   treatment score
   <chr>     <dbl>
 1 A             5
 2 A             4
 3 A             2
 4 A             5
 5 A             5
 6 A             4
 7 A             4
 8 A             2
 9 A             5
10 A             2
# ℹ 110 more rows
…
# Create the vectors for the treatments
trAm <- c(18.5,9,1.5,18.5,18.5,9,9,1.5,18.5,1.5,1.5,4.5,9,4.5,1.5,1.5,37.5,1.5,1.5,9,1.5,9,1.5,9,18.5,4.5,9,1.5,1.5,4.5)
trBm <- c(18.5,4.5,1.5,9,9,18.5,9,18.5,9,9,37.5,9,18.5,18.5,18.5,1.5,37.5,1.5, 4.5,18.5,1.5,37.5,9,4.5,1.5,18.5,4.5,18.5,9,18.5)
trCm <- c(1.5,4.5,0,9,0,0,9,0,0,4.5,1.5,0,9,0,0,1.5,18.5,1.5,0,4.5,0,9,1.5,1.5, 1.5,9,1.5,4.5,1.5,1.5)
trDm <- c(18.5,18.5,9,18.5,18.5,37.5,37.5,9,37.5,9,4.5,18.5,18.5,37.5,9,37.5,
       18.5,37.5,18.5,9,18.5,18.5,18.5,4.5,18.5,37.5,18.5,18.5,18.5,37.5)

# Create the tibble
dat_ordinal_mp <- tibble::tibble(
  treatment = rep(c("A", "B", "C", "D"), each = 30),
  midpoint = c(trAm, trBm, trCm, trDm)
)
dat_ordinal_mp

# A tibble: 120 × 2
   treatment midpoint
   <chr>        <dbl>
 1 A             18.5
 2 A              9  
 3 A              1.5
 4 A             18.5
 5 A             18.5
 6 A              9  
 7 A              9  
 8 A              1.5
 9 A             18.5
10 A              1.5
# ℹ 110 more rows
…
