R4PDE.net - 3 Ordinal scales
…
# Create the tibble
dat_ordinal <- tibble::tibble(
  treatment = rep(c("A", "B", "C", "D"), 
                  each = 30),
  score = c(trAs, trBs, trCs, trDs)
)

dat_ordinal

# A tibble: 120 × 2
   treatment score
   <chr>     <dbl>
 1 A             5
 2 A             4
 3 A             2
 4 A             5
 5 A             5
 6 A             4
 7 A             4
 8 A             2
 9 A             5
10 A             2
# ℹ 110 more rows
…
# Create the tibble
dat_ordinal_mp <- tibble::tibble(
  treatment = rep(c("A", "B", "C", "D"), 
                  each = 30),
  midpoint = c(trAm, trBm, trCm, trDm)
)
dat_ordinal_mp

# A tibble: 120 × 2
   treatment midpoint
   <chr>        <dbl>
 1 A             18.5
 2 A              9  
 3 A              1.5
 4 A             18.5
 5 A             18.5
 6 A              9  
 7 A              9  
 8 A              1.5
 9 A             18.5
10 A              1.5
# ℹ 110 more rows
…
