8 Remote sensing – R4PDE.net
…
8.5.7 Reading severity data

Now, let’s read the ground CLS data:

file <- "data/cercospora_data/CLS_DS.csv"
cls <- readr::read_csv(file, col_names = TRUE, show_col_types = FALSE)

What we got?

cls

# A tibble: 136 × 9
    Plot    D0    D1    D2    D3    D4    D5    D6  year
   <dbl> <dbl> <dbl> <dbl> <dbl> <dbl> <dbl> <dbl> <dbl>
 1     1     0 0.25   0.9   4.58  8.75  21      NA  2021
 2     2     0 0.75   3.68 12.4  20.8   45.4    NA  2021
 3     3     0 2.92   7.38 18    34.6   65.2    NA  2021
 4     4     0 0.75   5.45 17.4  42.6   75.5    NA  2021
 5     5     0 3.38   3.45 15.4  17.2   55.2    NA  2021
 6     6     0 0.8    1.38  8.8  12.2   15.4    NA  2021
 7     7     0 0.375  3.05  9.1  13     31.0    NA  2021
 8     8     0 3.7    8.4  29.4  41.2   71.8    NA  2021
 9     9     0 2.38   4.28 13.2  15.6   38.1    NA  2021
10    10     0 2.22   2.28 30.2  17.3   68      NA  2021
# ℹ 126 more rows
…
Then, we will convert the dataframe into a tibble:

covar.2021 <- tibble(df.2021)

Let’s check what we got:

covar.2021

# A tibble: 200 × 12
     blue  green    red redge   nir  ndvi  ndre   cire  sipi mndvi  plot date   
    <dbl>  <dbl>  <dbl> <dbl> <dbl> <dbl> <dbl>  <dbl> <dbl> <dbl> <int> <chr>  
 1 0.0234 0.0596 0.0436 0.144 0.313 0.699 0.352 -0.379  3.64 0.336     1 2021-0…
 2 0.0228 0.0597 0.0443 0.143 0.300 0.691 0.340 -0.362  3.55 0.383     2 2021-0…
 3 0.0223 0.0603 0.0430 0.144 0.304 0.699 0.342 -0.367  3.48 0.300     3 2021-0…
 4 0.0221 0.0629 0.0427 0.149 0.318 0.712 0.348 -0.387  3.43 0.364     4 2021-0…
 5 0.0231 0.0599 0.0462 0.139 0.285 0.676 0.331 -0.341  3.56 0.444     5 2021-0…
 6 0.0224 0.0612 0.0415 0.146 0.312 0.720 0.350 -0.377  3.38 0.249     6 2021-0…
 7 0.0209 0.0587 0.0400 0.141 0.302 0.724 0.352 -0.362  3.41 0.301     7 2021-0…
 8 0.0213 0.0575 0.0399 0.137 0.296 0.716 0.355 -0.353  3.49 0.341     8 2021-0…
 9 0.0219 0.0587 0.0409 0.141 0.302 0.712 0.350 -0.364  3.48 0.326     9 2021-0…
10 0.0226 0.0598 0.0436 0.143 0.299 0.696 0.340 -0.361  3.52 0.398    10 2021-0…
# ℹ 190 more rows

Now, we will need to join the CLS severity data to the spectral covariates data.

Let’s remind how is structured the CLS data:

cls

# A tibble: 136 × 9
    Plot    D0    D1    D2    D3    D4    D5    D6  year
   <dbl> <dbl> <dbl> <dbl> <dbl> <dbl> <dbl> <dbl> <dbl>
 1     1     0 0.25   0.9   4.58  8.75  21      NA  2021
 2     2     0 0.75   3.68 12.4  20.8   45.4    NA  2021
 3     3     0 2.92   7.38 18    34.6   65.2    NA  2021
 4     4     0 0.75   5.45 17.4  42.6   75.5    NA  2021
 5     5     0 3.38   3.45 15.4  17.2   55.2    NA  2021
 6     6     0 0.8    1.38  8.8  12.2   15.4    NA  2021
 7     7     0 0.375  3.05  9.1  13     31.0    NA  2021
 8     8     0 3.7    8.4  29.4  41.2   71.8    NA  2021
 9     9     0 2.38   4.28 13.2  15.6   38.1    NA  2021
10    10     0 2.22   2.28 30.2  17.3   68      NA  2021
# ℹ 126 more rows
…
# A tibble: 5 × 2
  old   new       
  <chr> <chr>     
1 D0    2021-07-07
2 D1    2021-07-15
3 D2    2021-07-20
4 D3    2021-08-02
5 D4    2021-08-25

Now, let’s do a left join to produce the changes:

(ncls <- left_join(long_cls, change, by = c(date = "old")))

# A tibble: 872 × 5
    Plot  year date  severity new       
   <dbl> <dbl> <chr>    <dbl> <chr>     
 1     1  2021 D0        0    2021-07-07
 2     1  2021 D1        0.25 2021-07-15
 3     1  2021 D2        0.9  2021-07-20
 4     1  2021 D3        4.58 2021-08-02
 5     1  2021 D4        8.75 2021-08-25
 6     1  2021 D5       21    <NA>      
 7     2  2021 D0        0    2021-07-07
 8     2  2021 D1        0.75 2021-07-15
 9     2  2021 D2        3.68 2021-07-20
10     2  2021 D3       12.4  2021-08-02
# ℹ 862 more rows

Finally, we can apply a join:

ncovar.2021 <- left_join(ncls, covar.2021, by = c("Plot" = "plot", "new" = "date"))

ncovar.2021

# A tibble: 872 × 15
    Plot  year date  severity new      blue   green     red  redge    nir   ndvi
   <dbl> <dbl> <chr>    <dbl> <chr>   <dbl>   <dbl>   <dbl>  <dbl>  <dbl>  <dbl>
 1     1  2021 D0        0    2021…  0.0234  0.0596  0.0436  0.144  0.313  0.699
 2     1  2021 D1        0.25 2021…  0.0205  0.0502  0.0297  0.134  0.319  0.788
 3     1  2021 D2        0.9  2021…  0.0211  0.0532  0.0363  0.162  0.406  0.811
 4     1  2021 D3        4.58 2021…  0.0246  0.0583  0.0334  0.204  0.467  0.852
 5     1  2021 D4        8.75 2021…  0.0324  0.0624  0.0707  0.133  0.224  0.526
 6     1  2021 D5       21    <NA>  NA      NA      NA      NA     NA     NA    
 7     2  2021 D0        0    2021…  0.0228  0.0597  0.0443  0.143  0.300  0.691
 8     2  2021 D1        0.75 2021…  0.0186  0.0505  0.0311  0.132  0.306  0.781
 9     2  2021 D2        3.68 2021…  0.0211  0.0563  0.0369  0.157  0.376  0.788
10     2  2021 D3       12.4  2021…  0.0223  0.0563  0.0340  0.192  0.409  0.825
# ℹ 862 more rows
# ℹ 4 more variables: ndre <dbl>, cire <dbl>, sipi <dbl>, mndvi <dbl>
…
Let’s remind that fcovar_2021.csv is the file containing the dataset we created previously. We will use the readr package to read the data as a tibble:

covar21 <- read_csv("data/cercospora_data/fcovar_2021.csv", 
                    col_types = cols(category = col_character())) %>%
  drop_na()

What we got?

covar21

# A tibble: 504 × 16
    Plot  year date  severity new          blue  green    red redge   nir  ndvi
   <dbl> <dbl> <chr>    <dbl> <date>      <dbl>  <dbl>  <dbl> <dbl> <dbl> <dbl>
 1     1  2021 D1        0.25 2021-07-15 0.0205 0.0502 0.0297 0.134 0.319 0.788
 2     1  2021 D2        0.9  2021-07-20 0.0211 0.0532 0.0363 0.162 0.406 0.811
 3     1  2021 D3        4.58 2021-08-02 0.0246 0.0583 0.0334 0.204 0.467 0.852
 4     1  2021 D4        8.75 2021-08-25 0.0324 0.0624 0.0707 0.133 0.224 0.526
 5     2  2021 D1        0.75 2021-07-15 0.0186 0.0505 0.0311 0.132 0.306 0.781
 6     2  2021 D2        3.68 2021-07-20 0.0211 0.0563 0.0369 0.157 0.376 0.788
 7     2  2021 D3       12.4  2021-08-02 0.0223 0.0563 0.0340 0.192 0.409 0.825
 8     2  2021 D4       20.8  2021-08-25 0.0322 0.0642 0.0736 0.131 0.213 0.487
 9     3  2021 D1        2.92 2021-07-15 0.0198 0.0535 0.0329 0.132 0.302 0.764
10     3  2021 D2        7.38 2021-07-20 0.0218 0.0591 0.0387 0.163 0.388 0.784
# ℹ 494 more rows
# ℹ 5 more variables: ndre <dbl>, cire <dbl>, sipi <dbl>, mndvi <dbl>,
#   category <chr>
…
names(covar21)

 [1] "Plot"     "year"     "date"     "severity" "new"      "blue"    
 [7] "green"    "red"      "redge"    "nir"      "ndvi"     "ndre"    
[13] "cire"     "sipi"     "mndvi"    "category"

Now, the selection:

covar21 %>% select(Plot,ndvi,ndre, cire, sipi, mndvi, category) -> covar

Let’s check what we get:

covar

# A tibble: 504 × 7
    Plot  ndvi  ndre   cire  sipi    mndvi category
   <dbl> <dbl> <dbl>  <dbl> <dbl>    <dbl> <fct>   
 1     1 0.788 0.398 -0.377  3.23  0.0206  0       
 2     1 0.811 0.422 -0.492  3.29 -0.170   0       
 3     1 0.852 0.394 -0.609  2.73 -0.933   1       
 4     1 0.526 0.260 -0.265  3.84  0.0698  1       
 5     2 0.781 0.392 -0.362  3.28  0.0250  0       
 6     2 0.788 0.401 -0.457  3.31 -0.0483  1       
 7     2 0.825 0.362 -0.529  2.63 -0.470   2       
 8     2 0.487 0.242 -0.249  4.15  0.164   3       
 9     3 0.764 0.382 -0.358  3.25  0.00614 1       
10     3 0.784 0.399 -0.476  3.27 -0.0954  1       
# ℹ 494 more rows
…
8.5.12.2.2 Splitting the data

Next step is to divide the data into a training and a test set. The set.seed() function can be used for reproducibility of the computations that are dependent on random numbers. By default, the training/testing split is 0.75 to 0.25.

set.seed(42)
data_split <- initial_split(data = covar)
data_train <- training(data_split)
data_test <- testing(data_split)

Let’s check the result:

data_train

# A tibble: 378 × 7
    Plot  ndvi  ndre   cire  sipi   mndvi category
   <dbl> <dbl> <dbl>  <dbl> <dbl>   <dbl> <fct>   
 1    13 0.736 0.380 -0.316  3.49  0.243  0       
 2    37 0.714 0.357 -0.371  3.53  0.307  0       
 3     4 0.789 0.390 -0.389  3.15 -0.0687 1       
 4    39 0.798 0.408 -0.408  3.29 -0.135  1       
 5    19 0.807 0.413 -0.501  3.29 -0.293  1       
 6    19 0.595 0.237 -0.301  1.80  0.0417 4       
 7    37 0.809 0.420 -0.483  3.32 -0.167  1       
 8    31 0.820 0.385 -0.508  2.86 -0.376  1       
 9    40 0.562 0.280 -0.318  3.88  0.116  2       
10    32 0.428 0.214 -0.206  4.22  0.0134 2       
# ℹ 368 more rows
…
8.5.12.2.8 Evaluating the model on the test data

Now, we will use the fitted model to estimate health status in the testing data:

lr_testing_pred <- 
  predict(fit_lr, data_test) %>% 
  bind_cols(predict(fit_lr, data_test, type = "prob")) %>% 
  bind_cols(data_test %>% select(category))

What we got:

lr_testing_pred

# A tibble: 126 × 9
   .pred_class  .pred_0 .pred_1 .pred_2 .pred_3 .pred_4 .pred_5 .pred_6 category
   <fct>          <dbl>   <dbl>   <dbl>   <dbl>   <dbl>   <dbl>   <dbl> <fct>   
 1 2            1.56e-5 1.05e-3 9.99e-1 5.43e-6 2.96e-5 3.55e-6 2.33e-6 2       
 2 3            2.40e-5 2.93e-4 4.99e-1 4.99e-1 8.07e-4 1.14e-3 6.02e-5 3       
 3 1            3.00e-3 9.97e-1 5.38e-6 1.11e-6 9.97e-6 6.54e-6 8.82e-7 0       
 4 3            2.43e-5 2.72e-3 6.49e-4 9.96e-1 1.28e-4 3.10e-4 5.86e-6 2       
 5 1            4.27e-5 9.63e-1 1.04e-2 2.59e-2 1.75e-4 3.86e-4 9.15e-6 2       
 6 1            9.07e-2 9.09e-1 3.17e-5 4.32e-6 2.72e-5 8.60e-6 6.71e-6 0       
 7 1            4.37e-2 9.56e-1 3.99e-5 1.10e-5 1.36e-5 6.58e-6 5.15e-6 1       
 8 1            8.56e-6 9.99e-1 4.81e-5 7.20e-4 2.05e-5 4.20e-6 1.44e-6 1       
 9 0            9.96e-1 1.87e-3 1.26e-3 2.29e-4 1.79e-4 1.52e-5 1.19e-5 1       
10 1            1.56e-3 9.98e-1 6.61e-6 7.14e-7 4.52e-6 1.52e-6 1.11e-6 1       
# ℹ 116 more rows
…
