19 Warning systems – R4PDE.net
…
          # Temperature Range: 26 <= T < 30
          Air_LWD >= 26 & Air_LWD < 30 & LWD >= 0 & LWD <= 3 ~ 0,
          Air_LWD >= 26 & Air_LWD < 30 & LWD >= 4 & LWD <= 8 ~ 1,
          Air_LWD >= 26 & Air_LWD < 30 & LWD >= 9 & LWD <= 15 ~ 2,
          Air_LWD >= 26 & Air_LWD < 30 & LWD >= 16 & LWD <= 22 ~ 3,
          Air_LWD >= 26 & Air_LWD < 30 & LWD > 22 ~ 4,
          
          # Default (For temperatures out of the specified ranges or any other scenarios)
          TRUE ~ 0  # Assigning a default value of 0
        )
      )
df_fast

# A tibble: 30 × 6
# Groups:   YEAR, MO [1]
    YEAR    MO    DY Air_LWD   LWD   DSV
   <dbl> <dbl> <dbl>   <dbl> <int> <dbl>
 1  2022     3     2    19.2    10     2
 2  2022     3     3    19.7    12     2
 3  2022     3     4    19.9    10     2
 4  2022     3     5    19.5     7     1
 5  2022     3     6    19.0     9     2
 6  2022     3     7    18.4     7     1
 7  2022     3     8    19.2    10     2
 8  2022     3     9    19.6    12     2
 9  2022     3    10    19.6    13     2
10  2022     3    11    19.7    12     2
# ℹ 20 more rows
…
NASA/POWER CERES/MERRA2 Native Resolution Daily Data  
 Dates (month/day/year): 01/01/2015 through 09/30/2023  
 Location: Latitude  40.7982   Longitude -81.9399  
 Elevation from MERRA-2: Average for 0.5 x 0.625 degree lat/lon region = 309.08 meters 
 The value for missing source data that cannot be computed or is outside of the sources availability range: NA  
 Parameter(s):  
 
 Parameters: 
 RH2M            MERRA-2 Relative Humidity at 2 Meters (%) ;
 T2M             MERRA-2 Temperature at 2 Meters (C) ;
 PRECTOTCORR     MERRA-2 Precipitation Corrected (mm/day)  
 
# A tibble: 3,195 × 10
     LON   LAT  YEAR    MM    DD   DOY YYYYMMDD    RH2M    T2M PRECTOTCORR
   <dbl> <dbl> <dbl> <int> <int> <int> <date>     <dbl>  <dbl>       <dbl>
 1 -81.9  40.8  2015     1     1     1 2015-01-01  67.4  -5.04        0   
 2 -81.9  40.8  2015     1     2     2 2015-01-02  79.8  -2.1         0   
 3 -81.9  40.8  2015     1     3     3 2015-01-03  94     1.96       25.7 
 4 -81.9  40.8  2015     1     4     4 2015-01-04  88.9   3.89        8.65
 5 -81.9  40.8  2015     1     5     5 2015-01-05  63.1  -9.22        0.54
 6 -81.9  40.8  2015     1     6     6 2015-01-06  76.6  -9.92        2.3 
 7 -81.9  40.8  2015     1     7     7 2015-01-07  70.9 -12.3         0.58
 8 -81.9  40.8  2015     1     8     8 2015-01-08  72.2 -13.7         0.54
 9 -81.9  40.8  2015     1     9     9 2015-01-09  75.6 -10.8         1.41
10 -81.9  40.8  2015     1    10    10 2015-01-10  78.6 -14.2         0.02
# ℹ 3,185 more rows
…
