16 Tests for patterns – R4PDE.net
…
 2) 'DD' Sequences:
    - Observed Count: 17
    - Expected Count: 9.22
    - Standard Deviation: 4.23
    - Z-score: 1.96
 The pattern for 'DD' sequences is 'aggregated'.
 ----------------------------------------------------------

We can apply these tests for a real example epidemic data provided by the {r4pde} R package. Let’s work with a portion of the intensively mapped data on the occurrence of gummy stem blight (GSB) of watermelon (Café-Filho et al. 2010).

library(r4pde)
gsb <- DidymellaWatermelon
gsb 

# A tibble: 1,344 × 4
     dap NS_col EW_row severity
   <int>  <int>  <int>    <int>
 1    50      1      1        0
 2    50      1      2        0
 3    50      1      3        0
 4    50      1      4        0
 5    50      1      5        0
 6    50      1      6        0
 7    50      1      7        0
 8    50      1      8        0
 9    50      1      9        0
10    50      1     10        0
# ℹ 1,334 more rows
…
Since the data frame is in the wide format, we need to reshape it to the long format using pivot_longer function of the tidyr package before plotting using ggplot2 package.

library(tidyr)

foci2 <- foci |> 
  pivot_longer(2:10, names_to = "y", values_to = "i")
foci2

# A tibble: 108 × 3
       x y         i
   <dbl> <chr> <dbl>
 1     1 1         0
 2     1 2         0
 3     1 3         0
 4     1 4         0
 5     1 5         0
 6     1 6         0
 7     1 7         0
 8     1 8         0
 9     1 9         0
10     2 1         1
# ℹ 98 more rows
…
4
1
1
1
1.0
1.0000000

The third object is the original data frame amended with the id for each focus which can be plotted and labelled (the focus ID) using the plot_AFSD() function.

foci_data <- result_foci[[3]]
foci_data

# A tibble: 22 × 4
       x     y     i focus_id
   <dbl> <int> <dbl>    <dbl>
 1     2     1     1        1
 2     2     2     1        1
 3     2     3     1        1
 4     2     8     1        2
 5     3     1     1        1
 6     3     2     1        1
 7     3     3     1        1
 8     3     7     1        2
 9     3     8     1        2
10     3     9     1        2
# ℹ 12 more rows
…
