R4PDE - 10 Model fitting
…
In the following section, we’ll focus on disease data collected over time from the same plot unit, also known as repeated measures. This data comes from a designed experiment aimed at evaluating and comparing the effects of different treatments.

Specifically, we’ll use a dataset of progress curves found on page 98 of “Study of Plant Disease Epidemics” (Madden et al. 2017). These curves depict the incidence of soybean plants showing symptoms of bud blight, which is caused by the tobacco streak virus. Four different treatments, corresponding to different planting dates, were evaluated using a randomized complete block design with four replicates. Each curve has four time-based assessments.

The data for this study is stored in a CSV file, which we’ll load into our environment using the read_csv() function. Once loaded, we’ll store the data in a dataframe named budblight.

10.5.1 Loading data

budblight <- read_csv("https://raw.githubusercontent.com/emdelponte/epidemiology-R/main/data/bud-blight-soybean.csv")

Let’s have a look at the first six rows of the dataset and check the data type for each column. There is an additional column representing the replicates, called block.

budblight

# A tibble: 64 × 4
   treat  time block     y
   <chr> <dbl> <dbl> <dbl>
 1 PD1      30     1  0.1 
 2 PD1      30     2  0.3 
 3 PD1      30     3  0.1 
 4 PD1      30     4  0.1 
 5 PD1      40     1  0.3 
 6 PD1      40     2  0.38
 7 PD1      40     3  0.36
 8 PD1      40     4  0.37
 9 PD1      50     1  0.57
10 PD1      50     2  0.52
# … with 54 more rows
…
