R4PDE.net - 18 Warning systems
…
          # Temperature Range: 26 <= T < 30
          Air_LWD >= 26 & Air_LWD < 30 & LWD >= 0 & LWD <= 3 ~ 0,
          Air_LWD >= 26 & Air_LWD < 30 & LWD >= 4 & LWD <= 8 ~ 1,
          Air_LWD >= 26 & Air_LWD < 30 & LWD >= 9 & LWD <= 15 ~ 2,
          Air_LWD >= 26 & Air_LWD < 30 & LWD >= 16 & LWD <= 22 ~ 3,
          Air_LWD >= 26 & Air_LWD < 30 & LWD > 22 ~ 4,
          
          # Default (For temperatures out of the specified ranges or any other scenarios)
          TRUE ~ 0  # Assigning a default value of 0
        )
      )
df_fast

# A tibble: 31 × 6
# Groups:   YEAR, MO [1]
    YEAR    MO    DY Air_LWD   LWD   DSV
   <dbl> <dbl> <dbl>   <dbl> <int> <dbl>
 1  2022     3     1    20.2     3     0
 2  2022     3     2    19.2    10     2
 3  2022     3     3    19.7    12     2
 4  2022     3     4    19.9    10     2
 5  2022     3     5    19.5     7     1
 6  2022     3     6    19.0     9     2
 7  2022     3     7    18.4     7     1
 8  2022     3     8    19.2    10     2
 9  2022     3     9    19.6    12     2
10  2022     3    10    19.6    13     2
# ℹ 21 more rows
…
