R4PDE - 16 Definitions and concepts
…
As seen above using glimpse() function, the full data set has 17 variables. Let’s reduce the data set to a few variables (study, inc and yld) and the trials number 1 and 2.

wm2 <- wm |> 
  select(study, inc, yld) |> 
  filter(study %in% c(1,2)) 
wm2

# A tibble: 26 × 3
   study   inc   yld
   <dbl> <dbl> <dbl>
 1     1    76  2265
 2     1    53  2618
 3     1    42  2554
 4     1    37  2632
 5     1    29  2820
 6     1    42  2799
 7     1    55  2503
 8     1    40  2967
 9     1    26  2965
10     1    18  3088
# … with 16 more rows
…
